Classwork 9 – DiyaData
…
Attaching package: 'openintro'

The following object is masked from 'package:mosaic':

    dotPlot

The following objects are masked from 'package:lattice':

    ethanol, lsegments

data(yrbss, package = "openintro")
yrbss

# A tibble: 13,583 × 13
     age gender grade hispanic race                     height weight helmet_12m
   <int> <chr>  <chr> <chr>    <chr>                     <dbl>  <dbl> <chr>     
 1    14 female 9     not      Black or African Americ…  NA      NA   never     
 2    14 female 9     not      Black or African Americ…  NA      NA   never     
 3    15 female 9     hispanic Native Hawaiian or Othe…   1.73   84.4 never     
 4    15 female 9     not      Black or African Americ…   1.6    55.8 never     
 5    15 female 9     not      Black or African Americ…   1.5    46.7 did not r…
 6    15 female 9     not      Black or African Americ…   1.57   67.1 did not r…
 7    15 female 9     not      Black or African Americ…   1.65  132.  did not r…
 8    14 male   9     not      Black or African Americ…   1.88   71.2 never     
 9    15 male   9     not      Black or African Americ…   1.75   63.5 never     
10    15 male   10    not      Black or African Americ…   1.37   97.1 did not r…
# ℹ 13,573 more rows
# ℹ 5 more variables: text_while_driving_30d <chr>, physically_active_7d <int>,
#   hours_tv_per_school_day <chr>, strength_training_7d <int>,
#   school_night_hours_sleep <chr>
…
no_helmet_text <- yrbss %>%
  filter(helmet_12m == "never") %>%
  mutate(text_ind = ifelse(text_while_driving_30d == "30", "yes", "no")) %>%
  # removing most of the other variables
  select(age, gender, text_ind)
no_helmet_text

# A tibble: 6,977 × 3
     age gender text_ind
   <int> <chr>  <chr>   
 1    14 female no      
 2    14 female <NA>    
 3    15 female yes     
 4    15 female no      
 5    14 male   <NA>    
 6    15 male   <NA>    
 7    16 male   no      
 8    14 male   no      
 9    15 male   no      
10    16 male   no      
# ℹ 6,967 more rows
…
