Math Anxiety Dataset – DiyaData
…
Rows: 599 Columns: 6
── Column specification ────────────────────────────────────────────────────────
Delimiter: ";"
chr (2): Gender, Grade
dbl (4): Age, AMAS, RCMAS, Arith

ℹ Use `spec()` to retrieve the full column specification for this data.
ℹ Specify the column types or set `show_col_types = FALSE` to quiet this message.

meth

# A tibble: 599 × 6
     age gender grade      amas rcmas arith
   <dbl> <chr>  <chr>     <dbl> <dbl> <dbl>
 1  138. Boy    Secondary     9    20     6
 2  141. Boy    Secondary    18     8     6
 3  138. Girl   Secondary    23    26     5
 4  143. Girl   Secondary    19    18     7
 5  136. Boy    Secondary    23    20     1
 6  135  Girl   Secondary    27    33     1
 7  134. Boy    Secondary    22    23     4
 8  139. Boy    Secondary    17    11     7
 9  132. Girl   Secondary    28    32     2
10  135. Boy    Secondary    20    30     6
# ℹ 589 more rows
…
meth_modified %>%
  mutate(
    age = cut(
      age,
      breaks = c(0, 80, 100, 120, 140, 160, 180, 200),
      labels = c("0-80", "80-100", "100-120", "120-140", "140-160", "160-180", "180-200"),
      include.lowest = TRUE
    ),
    arith = factor(arith)
  )

# A tibble: 599 × 6
   gender grade     age      amas rcmas arith
   <fct>  <fct>     <fct>   <dbl> <dbl> <fct>
 1 Boy    Secondary 120-140     9    20 6    
 2 Boy    Secondary 140-160    18     8 6    
 3 Girl   Secondary 120-140    23    26 5    
 4 Girl   Secondary 140-160    19    18 7    
 5 Boy    Secondary 120-140    23    20 1    
 6 Girl   Secondary 120-140    27    33 1    
 7 Boy    Secondary 120-140    22    23 4    
 8 Boy    Secondary 120-140    17    11 7    
 9 Girl   Secondary 120-140    28    32 2    
10 Boy    Secondary 120-140    20    30 6    
# ℹ 589 more rows
…
meth_modified

# A tibble: 599 × 6
   gender grade       age  amas rcmas arith
   <fct>  <fct>     <dbl> <dbl> <dbl> <dbl>
 1 Boy    Secondary  138.     9    20     6
 2 Boy    Secondary  141.    18     8     6
 3 Girl   Secondary  138.    23    26     5
 4 Girl   Secondary  143.    19    18     7
 5 Boy    Secondary  136.    23    20     1
 6 Girl   Secondary  135     27    33     1
 7 Boy    Secondary  134.    22    23     4
 8 Boy    Secondary  139.    17    11     7
 9 Girl   Secondary  132.    28    32     2
10 Boy    Secondary  135.    20    30     6
# ℹ 589 more rows
…
