Classwork 9 – DiyaData
…
The following objects are masked from 'package:lattice':

    ethanol, lsegments

library(visStatistics) # One package to rule them all
library(ggstatsplot)

You can cite this package as:
     Patil, I. (2021). Visualizations with statistical details: The 'ggstatsplot' approach.
     Journal of Open Source Software, 6(61), 3167, doi:10.21105/joss.03167

data("exam_grades", package = "openintro")
exam_grades

# A tibble: 233 × 6
   semester sex   exam1 exam2 exam3 course_grade
   <chr>    <chr> <dbl> <dbl> <dbl>        <dbl>
 1 2000-1   Man    84.5  69.5  86.5         76.3
 2 2000-1   Man    80    74    67           75.4
 3 2000-1   Man    56    70    71.5         67.1
 4 2000-1   Man    64    61    67.5         63.5
 5 2000-1   Man    90.5  72.5  75           72.4
 6 2000-1   Man    74    78.5  84.5         71.4
 7 2000-1   Man    60.5  44    58           56.1
 8 2000-1   Man    89    82    88           78.0
 9 2000-1   Woman  87.5  86.5  95           82.9
10 2000-1   Man    91    98    88           89.1
# ℹ 223 more rows
…
ANOVA

frogs_orig <- read_csv("frogs.csv")

Rows: 60 Columns: 4
── Column specification ────────────────────────────────────────────────────────
Delimiter: ","
dbl (4): Frogspawn sample id, Temperature13, Temperature18, Temperature25

ℹ Use `spec()` to retrieve the full column specification for this data.
ℹ Specify the column types or set `show_col_types = FALSE` to quiet this message.

frogs_orig

# A tibble: 60 × 4
   `Frogspawn sample id` Temperature13 Temperature18 Temperature25
                   <dbl>         <dbl>         <dbl>         <dbl>
 1                     1            24            NA            NA
 2                     2            NA            21            NA
 3                     3            NA            NA            18
 4                     4            26            NA            NA
 5                     5            NA            22            NA
 6                     6            NA            NA            14
 7                     7            27            NA            NA
 8                     8            NA            22            NA
 9                     9            NA            NA            15
10                    10            27            NA            NA
# ℹ 50 more rows
…
    # knock off the unnecessary "Temperature" word
    # Just keep the digits thereafter
    patterns = c("Temperature", TempFac = "\\d+"),
    cols_remove = TRUE
  ) %>%
  # Convert Temp into TempFac, a 3-level factor
  mutate(TempFac = factor(
    x = TempFac,
    levels = c(13, 18, 25),
    labels = c("13", "18", "25")
  )) %>%
  rename("Id" = `Frogspawn sample id`) -> frogs_long
frogs_long

# A tibble: 60 × 3
      Id TempFac  Time
   <dbl> <fct>   <dbl>
 1     1 13         24
 2     2 18         21
 3     3 25         18
 4     4 13         26
 5     5 18         22
 6     6 25         14
 7     7 13         27
 8     8 18         22
 9     9 25         15
10    10 13         27
# ℹ 50 more rows
…
