Is the Average Opinion Score for Modern Family, Friends & Big Bang Theory equal? – DiyaData
…
tv_long

# A tibble: 138 × 4
   Id      Gender Series          Opinion_Score
   <chr>   <chr>  <fct>                   <dbl>
 1 Diya    Female Friends                     8
 2 Diya    Female Modern Family               9
 3 Diya    Female Big Bang Theory             9
 4 Ihina   Female Friends                     7
 5 Ihina   Female Modern Family               9
 6 Ihina   Female Big Bang Theory             6
 7 Abhinav Male   Friends                     8
 8 Abhinav Male   Modern Family              10
 9 Abhinav Male   Big Bang Theory             7
10 Nikhita Female Friends                     7
# ℹ 128 more rows
…
null_dist_infer <- tv_long %>%
  specify(Opinion_Score ~ Series) %>%
  hypothesise(null = "independence") %>%
  generate(reps = 4999, type = "permute") %>%
  calculate(stat = "F")
null_dist_infer

Response: Opinion_Score (numeric)
Explanatory: Series (factor)
Null Hypothesi...
# A tibble: 4,999 × 2
   replicate  stat
       <int> <dbl>
 1         1 0.536
 2         2 0.574
 3         3 0.652
 4         4 2.96 
 5         5 2.73 
 6         6 0.643
 7         7 1.12 
 8         8 1.16 
 9         9 0.428
10        10 0.625
# ℹ 4,989 more rows
…
