Police Shootings Dataset – DiyaData
…
janitor::clean_names(police_shootings)

# A tibble: 6,421 × 12
   date       manner_of_death  armed        age gender race  city          state
   <date>     <chr>            <chr>      <dbl> <chr>  <chr> <chr>         <chr>
 1 2015-01-02 shot             gun           53 M      A     Shelton       WA   
 2 2015-01-02 shot             gun           47 M      W     Aloha         OR   
 3 2015-01-03 shot and Tasered unarmed       23 M      H     Wichita       KS   
 4 2015-01-04 shot             toy weapon    32 M      W     San Francisco CA   
 5 2015-01-04 shot             nail gun      39 M      H     Evans         CO   
 6 2015-01-04 shot             gun           18 M      W     Guthrie       OK   
 7 2015-01-05 shot             gun           22 M      H     Chandler      AZ   
 8 2015-01-06 shot             gun           35 M      W     Assaria       KS   
 9 2015-01-06 shot             unarmed       34 F      W     Burlington    IA   
10 2015-01-06 shot             toy weapon    47 M      B     Knoxville     PA   
# ℹ 6,411 more rows
# ℹ 4 more variables: signs_of_mental_illness <lgl>, threat_level <chr>,
#   flee <chr>, body_camera <lgl>
…
There are many missing entries; hence dropping the NA’s

police_shootings_mod1 <- police_shootings %>% 
  naniar::replace_with_na_all(condition = ~ .x %in% common_na_strings) %>%
  naniar::replace_with_na_all(condition = ~ .x %in% common_na_numbers) %>% 
drop_na()
police_shootings_mod1

# A tibble: 5,106 × 12
   date       manner_of_death  armed        age gender race  city          state
   <date>     <chr>            <chr>      <dbl> <chr>  <chr> <chr>         <chr>
 1 2015-01-02 shot             gun           53 M      A     Shelton       WA   
 2 2015-01-02 shot             gun           47 M      W     Aloha         OR   
 3 2015-01-03 shot and Tasered unarmed       23 M      H     Wichita       KS   
 4 2015-01-04 shot             toy weapon    32 M      W     San Francisco CA   
 5 2015-01-04 shot             nail gun      39 M      H     Evans         CO   
 6 2015-01-04 shot             gun           18 M      W     Guthrie       OK   
 7 2015-01-05 shot             gun           22 M      H     Chandler      AZ   
 8 2015-01-06 shot             gun           35 M      W     Assaria       KS   
 9 2015-01-06 shot             unarmed       34 F      W     Burlington    IA   
10 2015-01-06 shot             toy weapon    47 M      B     Knoxville     PA   
# ℹ 5,096 more rows
# ℹ 4 more variables: signs_of_mental_illness <lgl>, threat_level <chr>,
#   flee <chr>, body_camera <lgl>
…
police_shootings_mod1 %>%  
mutate(
    manner_of_death = as_factor(manner_of_death),
    armed = as_factor(armed),
    gender = as_factor(gender),
    race = as_factor(race),
    city = as_factor(city),
    state = as_factor(state),
    signs_of_mental_illness = as_factor(signs_of_mental_illness),
    threat_level = as_factor(threat_level),
    flee = as_factor(flee),
    body_camera = as_factor(body_camera)
 )

# A tibble: 5,106 × 12
   date       manner_of_death  armed        age gender race  city          state
   <date>     <fct>            <fct>      <dbl> <fct>  <fct> <fct>         <fct>
 1 2015-01-02 shot             gun           53 M      A     Shelton       WA   
 2 2015-01-02 shot             gun           47 M      W     Aloha         OR   
 3 2015-01-03 shot and Tasered unarmed       23 M      H     Wichita       KS   
 4 2015-01-04 shot             toy weapon    32 M      W     San Francisco CA   
 5 2015-01-04 shot             nail gun      39 M      H     Evans         CO   
 6 2015-01-04 shot             gun           18 M      W     Guthrie       OK   
 7 2015-01-05 shot             gun           22 M      H     Chandler      AZ   
 8 2015-01-06 shot             gun           35 M      W     Assaria       KS   
 9 2015-01-06 shot             unarmed       34 F      W     Burlington    IA   
10 2015-01-06 shot             toy weapon    47 M      B     Knoxville     PA   
# ℹ 5,096 more rows
# ℹ 4 more variables: signs_of_mental_illness <fct>, threat_level <fct>,
#   flee <fct>, body_camera <fct>
…
