Is the average weekly expenditure for boys equal to girls? – DiyaData
…
null_dist_infer <- exp_modified %>% 
  specify(Total_Expenditure_Last_Week ~ Gender) %>%
  hypothesize(null = "independence") %>%
  generate(reps = 4999, type = "permute") %>% 
  calculate(
    stat = "diff in means",
    order = c("Male", "Female") 
  )
null_dist_infer

Response: Total_Expenditure_Last_Week (numeric)
Explanatory: Gender (factor)
...
# A tibble: 4,999 × 2
   replicate   stat
       <int>  <dbl>
 1         1 -3680.
 2         2  3696.
 3         3 -2997.
 4         4  2828.
 5         5 -2935.
 6         6  3881.
 7         7  1753.
 8         8  3548.
 9         9 -2063.
10        10  -155.
# ℹ 4,989 more rows
…
