classwork8 – DiyaData
…
[1] 168.3497

pop_sd

[1] 10.15705

set.seed(12345) # for reproducibility
sample_50 <- mosaic::sample(NHANES_adult, size = 50) %>%
  select(Height)
sample_50

# A tibble: 50 × 1
   Height
    <dbl>
 1   155.
 2   154.
 3   173.
 4   179.
 5   170.
 6   186.
 7   159.
 8   173.
 9   175.
10   170.
# ℹ 40 more rows
…
  sample(NHANES_adult, size = 50) %>%
    select(Height) %>% # drop sampling related column "orig.id"
    summarise(
      sample_mean = mean(Height),
      sample_sd = sd(Height),
      sample_min = min(Height),
      sample_max = max(Height)
    )
}
sample_50_500 <-
  sample_50_500 %>%
  select(.index, sample_mean, sample_sd, sample_min, sample_max)
sample_50_500

# A tibble: 500 × 5
   .index sample_mean sample_sd sample_min sample_max
    <dbl>       <dbl>     <dbl>      <dbl>      <dbl>
 1      1        167.     11.2        147.       189.
 2      2        168.      8.30       152.       187 
 3      3        166.     10.3        148.       191.
 4      4        169.     10.0        144.       188.
 5      5        166.     10.6        148.       191.
 6      6        169.      9.67       147.       185.
 7      7        167.      9.90       148.       188.
 8      8        170.     10.9        150.       187.
 9      9        169.      8.23       155.       184.
10     10        165.      9.64       142.       185.
# ℹ 490 more rows
…
